{"total":94,"per_page":8,"current_page":1,"last_page":12,"from":1,"to":8,"data":[{"id":157,"slug":"sword-art-online","title":"Sword Art Online","type":"TV","episodes":25,"status":"Finished Airing","season":"Summer","year":2012,"score":7.2,"poster":"https:\/\/i.animepahe.com\/posters\/16b202fb50864c72f77eea262afcf728.jpg","session":"7f1fbe08-1507-e47c-c0f2-823048e5144d"},{"id":444,"slug":"sword-art-online-2","title":"Sword Art Online II","type":"TV","episodes":24,"status":"Finished Airing","season":"Summer","year":2014,"score":6.7,"poster":"https:\/\/i.animepahe.com\/posters\/d798347c8b5de0bf970f273815890718.jpg","session":"81f7b1a6-9529-eb8e-d5e9-d3a6bea74acb"},{"id":2484,"slug":"sword-art-online-alternative-gun-gale-online","title":"Sword Art Online Alternative: Gun Gale Online","type":"TV","episodes":12,"status":"Finished Airing","season":"Spring","year":2018,"score":7,"poster":"https:\/\/i.animepahe.com\/posters\/c671e6f9462c9f2d3b1f33f2688b4d82.jpg","session":"b0cb4bcf-c9f4-4a86-372a-c48e50ff6f0c"},{"id":2801,"slug":"sword-art-online-alicization","title":"Sword Art Online: Alicization","type":"TV","episodes":24,"status":"Finished Airing","season":"Fall","year":2018,"score":7.56,"poster":"https:\/\/i.animepahe.com\/posters\/b65a5af4d90b2b8c26ce42e6f257e76c.jpg","session":"b52d8278-4cf4-a1ee-41b8-2fdbacb0570f"},{"id":3430,"slug":"sword-art-online-alicization-war-of-underworld","title":"Sword Art Online: Alicization - War of Underworld","type":"TV","episodes":12,"status":"Finished Airing","season":"Fall","year":2019,"score":7.58,"poster":"https:\/\/i.animepahe.com\/posters\/195663af100b14811b28c5e647fe471ea82ca9e62562c26d2e9594cf855c30e8.jpg","session":"5fcb3bc5-be4b-2a01-8d47-ab7664f9384b"},{"id":3877,"slug":"sword-art-online-alicization-war-of-underworld-2nd-season","title":"Sword Art Online: Alicization - War of Underworld 2nd Season","type":"TV","episodes":11,"status":"Finished Airing","season":"Summer","year":2020,"score":7.46,"poster":"https:\/\/i.animepahe.com\/posters\/9f107ce7bb934ff9d1e5131bc5865d4a76766bd4453306ab0840eae130fd3f85.jpg","session":"b6c21c20-f9af-fb47-77f1-b21d2a58b44a"},{"id":2254,"slug":"sword-art-online-movie-ordinal-scale","title":"Sword Art Online Movie: Ordinal Scale","type":"Movie","episodes":1,"status":"Finished Airing","season":"Winter","year":2017,"score":7.57,"poster":"https:\/\/i.animepahe.com\/posters\/1d028cbad2e82f8072a937c2363758f9.jpg","session":"85096c45-9070-d952-7b28-2c9c46ed6062"},{"id":4854,"slug":"sword-art-online-the-movie-progressive-aria-of-a-starless-night","title":"Sword Art Online: Progressive Movie - Hoshi Naki Yoru no Aria","type":"Movie","episodes":1,"status":"Finished Airing","season":"Fall","year":2021,"score":8.01,"poster":"https:\/\/i.animepahe.com\/posters\/f385a207f5f4b07f62230c92a46c41942f7922c70fb2b4af69e72db360f78554.jpg","session":"ec590673-20b1-881e-1552-668d6926ed9d"}]}